{"frames": {

"BluePlayerDeath_1.png":
{
	"frame": {"x":0,"y":0,"w":150,"h":150},
	"rotated": false,
	"trimmed": false,
	"spriteSourceSize": {"x":0,"y":0,"w":150,"h":150},
	"sourceSize": {"w":150,"h":150},
	"pivot": {"x":0.5,"y":0.5}
},
"BluePlayerDeath_2.png":
{
	"frame": {"x":150,"y":0,"w":150,"h":150},
	"rotated": false,
	"trimmed": false,
	"spriteSourceSize": {"x":0,"y":0,"w":150,"h":150},
	"sourceSize": {"w":150,"h":150},
	"pivot": {"x":0.5,"y":0.5}
},
"BluePlayerDeath_3.png":
{
	"frame": {"x":300,"y":0,"w":150,"h":150},
	"rotated": false,
	"trimmed": false,
	"spriteSourceSize": {"x":0,"y":0,"w":150,"h":150},
	"sourceSize": {"w":150,"h":150},
	"pivot": {"x":0.5,"y":0.5}
},
"BluePlayerDeath_4.png":
{
	"frame": {"x":450,"y":0,"w":150,"h":150},
	"rotated": false,
	"trimmed": false,
	"spriteSourceSize": {"x":0,"y":0,"w":150,"h":150},
	"sourceSize": {"w":150,"h":150},
	"pivot": {"x":0.5,"y":0.5}
},
"BluePlayerDeath_5.png":
{
	"frame": {"x":600,"y":0,"w":150,"h":150},
	"rotated": false,
	"trimmed": false,
	"spriteSourceSize": {"x":0,"y":0,"w":150,"h":150},
	"sourceSize": {"w":150,"h":150},
	"pivot": {"x":0.5,"y":0.5}
},
"BluePlayerDeath_6.png":
{
	"frame": {"x":750,"y":0,"w":150,"h":150},
	"rotated": false,
	"trimmed": false,
	"spriteSourceSize": {"x":0,"y":0,"w":150,"h":150},
	"sourceSize": {"w":150,"h":150},
	"pivot": {"x":0.5,"y":0.5}
},
"BluePlayerDeath_7.png":
{
	"frame": {"x":0,"y":150,"w":150,"h":150},
	"rotated": false,
	"trimmed": false,
	"spriteSourceSize": {"x":0,"y":0,"w":150,"h":150},
	"sourceSize": {"w":150,"h":150},
	"pivot": {"x":0.5,"y":0.5}
},
"BluePlayerDeath_8.png":
{
	"frame": {"x":150,"y":150,"w":150,"h":150},
	"rotated": false,
	"trimmed": false,
	"spriteSourceSize": {"x":0,"y":0,"w":150,"h":150},
	"sourceSize": {"w":150,"h":150},
	"pivot": {"x":0.5,"y":0.5}
},
"BluePlayerDeath_9.png":
{
	"frame": {"x":300,"y":150,"w":150,"h":150},
	"rotated": false,
	"trimmed": false,
	"spriteSourceSize": {"x":0,"y":0,"w":150,"h":150},
	"sourceSize": {"w":150,"h":150},
	"pivot": {"x":0.5,"y":0.5}
},
"BluePlayerDeath_10.png":
{
	"frame": {"x":450,"y":150,"w":150,"h":150},
	"rotated": false,
	"trimmed": false,
	"spriteSourceSize": {"x":0,"y":0,"w":150,"h":150},
	"sourceSize": {"w":150,"h":150},
	"pivot": {"x":0.5,"y":0.5}
},
"BluePlayerDeath_11.png":
{
	"frame": {"x":600,"y":150,"w":150,"h":150},
	"rotated": false,
	"trimmed": false,
	"spriteSourceSize": {"x":0,"y":0,"w":150,"h":150},
	"sourceSize": {"w":150,"h":150},
	"pivot": {"x":0.5,"y":0.5}
},
"BluePlayerDeath_12.png":
{
	"frame": {"x":750,"y":150,"w":150,"h":150},
	"rotated": false,
	"trimmed": false,
	"spriteSourceSize": {"x":0,"y":0,"w":150,"h":150},
	"sourceSize": {"w":150,"h":150},
	"pivot": {"x":0.5,"y":0.5}
},
"BluePlayerDeath_13.png":
{
	"frame": {"x":0,"y":300,"w":150,"h":150},
	"rotated": false,
	"trimmed": false,
	"spriteSourceSize": {"x":0,"y":0,"w":150,"h":150},
	"sourceSize": {"w":150,"h":150},
	"pivot": {"x":0.5,"y":0.5}
},
"BluePlayerDeath_14.png":
{
	"frame": {"x":150,"y":300,"w":150,"h":150},
	"rotated": false,
	"trimmed": false,
	"spriteSourceSize": {"x":0,"y":0,"w":150,"h":150},
	"sourceSize": {"w":150,"h":150},
	"pivot": {"x":0.5,"y":0.5}
},
"BluePlayerDeath_15.png":
{
	"frame": {"x":300,"y":300,"w":150,"h":150},
	"rotated": false,
	"trimmed": false,
	"spriteSourceSize": {"x":0,"y":0,"w":150,"h":150},
	"sourceSize": {"w":150,"h":150},
	"pivot": {"x":0.5,"y":0.5}
},
"BluePlayerDeath_16.png":
{
	"frame": {"x":450,"y":300,"w":150,"h":150},
	"rotated": false,
	"trimmed": false,
	"spriteSourceSize": {"x":0,"y":0,"w":150,"h":150},
	"sourceSize": {"w":150,"h":150},
	"pivot": {"x":0.5,"y":0.5}
},
"BluePlayerDeath_17.png":
{
	"frame": {"x":600,"y":300,"w":150,"h":150},
	"rotated": false,
	"trimmed": false,
	"spriteSourceSize": {"x":0,"y":0,"w":150,"h":150},
	"sourceSize": {"w":150,"h":150},
	"pivot": {"x":0.5,"y":0.5}
},
"BluePlayerDeath_18.png":
{
	"frame": {"x":750,"y":300,"w":150,"h":150},
	"rotated": false,
	"trimmed": false,
	"spriteSourceSize": {"x":0,"y":0,"w":150,"h":150},
	"sourceSize": {"w":150,"h":150},
	"pivot": {"x":0.5,"y":0.5}
},
"BluePlayerDeath_19.png":
{
	"frame": {"x":0,"y":450,"w":150,"h":150},
	"rotated": false,
	"trimmed": false,
	"spriteSourceSize": {"x":0,"y":0,"w":150,"h":150},
	"sourceSize": {"w":150,"h":150},
	"pivot": {"x":0.5,"y":0.5}
},
"BluePlayerDeath_20.png":
{
	"frame": {"x":150,"y":450,"w":150,"h":150},
	"rotated": false,
	"trimmed": false,
	"spriteSourceSize": {"x":0,"y":0,"w":150,"h":150},
	"sourceSize": {"w":150,"h":150},
	"pivot": {"x":0.5,"y":0.5}
},
"BluePlayerDeath_21.png":
{
	"frame": {"x":300,"y":450,"w":150,"h":150},
	"rotated": false,
	"trimmed": false,
	"spriteSourceSize": {"x":0,"y":0,"w":150,"h":150},
	"sourceSize": {"w":150,"h":150},
	"pivot": {"x":0.5,"y":0.5}
},
"BluePlayerDeath_22.png":
{
	"frame": {"x":450,"y":450,"w":150,"h":150},
	"rotated": false,
	"trimmed": false,
	"spriteSourceSize": {"x":0,"y":0,"w":150,"h":150},
	"sourceSize": {"w":150,"h":150},
	"pivot": {"x":0.5,"y":0.5}
},
"BluePlayerDeath_23.png":
{
	"frame": {"x":600,"y":450,"w":150,"h":150},
	"rotated": false,
	"trimmed": false,
	"spriteSourceSize": {"x":0,"y":0,"w":150,"h":150},
	"sourceSize": {"w":150,"h":150},
	"pivot": {"x":0.5,"y":0.5}
},
"BluePlayerDeath_24.png":
{
	"frame": {"x":750,"y":450,"w":150,"h":150},
	"rotated": false,
	"trimmed": false,
	"spriteSourceSize": {"x":0,"y":0,"w":150,"h":150},
	"sourceSize": {"w":150,"h":150},
	"pivot": {"x":0.5,"y":0.5}
},
"BluePlayerIdle.png":
{
	"frame": {"x":0,"y":600,"w":150,"h":150},
	"rotated": false,
	"trimmed": false,
	"spriteSourceSize": {"x":0,"y":0,"w":150,"h":150},
	"sourceSize": {"w":150,"h":150},
	"pivot": {"x":0.5,"y":0.5}
},
"BluePlayerJump_1.png":
{
	"frame": {"x":150,"y":600,"w":150,"h":150},
	"rotated": false,
	"trimmed": false,
	"spriteSourceSize": {"x":0,"y":0,"w":150,"h":150},
	"sourceSize": {"w":150,"h":150},
	"pivot": {"x":0.5,"y":0.5}
},
"BluePlayerJump_2.png":
{
	"frame": {"x":300,"y":600,"w":150,"h":150},
	"rotated": false,
	"trimmed": false,
	"spriteSourceSize": {"x":0,"y":0,"w":150,"h":150},
	"sourceSize": {"w":150,"h":150},
	"pivot": {"x":0.5,"y":0.5}
},
"BluePlayerJump_3.png":
{
	"frame": {"x":450,"y":600,"w":150,"h":150},
	"rotated": false,
	"trimmed": false,
	"spriteSourceSize": {"x":0,"y":0,"w":150,"h":150},
	"sourceSize": {"w":150,"h":150},
	"pivot": {"x":0.5,"y":0.5}
},
"BluePlayerJump_4.png":
{
	"frame": {"x":600,"y":600,"w":150,"h":150},
	"rotated": false,
	"trimmed": false,
	"spriteSourceSize": {"x":0,"y":0,"w":150,"h":150},
	"sourceSize": {"w":150,"h":150},
	"pivot": {"x":0.5,"y":0.5}
},
"BluePlayerJump_5.png":
{
	"frame": {"x":750,"y":600,"w":150,"h":150},
	"rotated": false,
	"trimmed": false,
	"spriteSourceSize": {"x":0,"y":0,"w":150,"h":150},
	"sourceSize": {"w":150,"h":150},
	"pivot": {"x":0.5,"y":0.5}
},
"BluePlayerJump_Top.png":
{
	"frame": {"x":0,"y":750,"w":150,"h":150},
	"rotated": false,
	"trimmed": false,
	"spriteSourceSize": {"x":0,"y":0,"w":150,"h":150},
	"sourceSize": {"w":150,"h":150},
	"pivot": {"x":0.5,"y":0.5}
},
"BluePlayerRun_1.png":
{
	"frame": {"x":150,"y":750,"w":150,"h":150},
	"rotated": false,
	"trimmed": false,
	"spriteSourceSize": {"x":0,"y":0,"w":150,"h":150},
	"sourceSize": {"w":150,"h":150},
	"pivot": {"x":0.5,"y":0.5}
},
"BluePlayerRun_2.png":
{
	"frame": {"x":300,"y":750,"w":150,"h":150},
	"rotated": false,
	"trimmed": false,
	"spriteSourceSize": {"x":0,"y":0,"w":150,"h":150},
	"sourceSize": {"w":150,"h":150},
	"pivot": {"x":0.5,"y":0.5}
},
"BluePlayerRun_3.png":
{
	"frame": {"x":450,"y":750,"w":150,"h":150},
	"rotated": false,
	"trimmed": false,
	"spriteSourceSize": {"x":0,"y":0,"w":150,"h":150},
	"sourceSize": {"w":150,"h":150},
	"pivot": {"x":0.5,"y":0.5}
},
"BluePlayerRun_4.png":
{
	"frame": {"x":600,"y":750,"w":150,"h":150},
	"rotated": false,
	"trimmed": false,
	"spriteSourceSize": {"x":0,"y":0,"w":150,"h":150},
	"sourceSize": {"w":150,"h":150},
	"pivot": {"x":0.5,"y":0.5}
},
"BluePlayerRun_5.png":
{
	"frame": {"x":750,"y":750,"w":150,"h":150},
	"rotated": false,
	"trimmed": false,
	"spriteSourceSize": {"x":0,"y":0,"w":150,"h":150},
	"sourceSize": {"w":150,"h":150},
	"pivot": {"x":0.5,"y":0.5}
},
"BluePlayerRun_6.png":
{
	"frame": {"x":0,"y":900,"w":150,"h":150},
	"rotated": false,
	"trimmed": false,
	"spriteSourceSize": {"x":0,"y":0,"w":150,"h":150},
	"sourceSize": {"w":150,"h":150},
	"pivot": {"x":0.5,"y":0.5}
},
"BluePlayerRun_7.png":
{
	"frame": {"x":150,"y":900,"w":150,"h":150},
	"rotated": false,
	"trimmed": false,
	"spriteSourceSize": {"x":0,"y":0,"w":150,"h":150},
	"sourceSize": {"w":150,"h":150},
	"pivot": {"x":0.5,"y":0.5}
},
"BluePlayerRun_8.png":
{
	"frame": {"x":300,"y":900,"w":150,"h":150},
	"rotated": false,
	"trimmed": false,
	"spriteSourceSize": {"x":0,"y":0,"w":150,"h":150},
	"sourceSize": {"w":150,"h":150},
	"pivot": {"x":0.5,"y":0.5}
},
"BluePlayerRun_9.png":
{
	"frame": {"x":450,"y":900,"w":150,"h":150},
	"rotated": false,
	"trimmed": false,
	"spriteSourceSize": {"x":0,"y":0,"w":150,"h":150},
	"sourceSize": {"w":150,"h":150},
	"pivot": {"x":0.5,"y":0.5}
},
"BluePlayerRun_10.png":
{
	"frame": {"x":600,"y":900,"w":150,"h":150},
	"rotated": false,
	"trimmed": false,
	"spriteSourceSize": {"x":0,"y":0,"w":150,"h":150},
	"sourceSize": {"w":150,"h":150},
	"pivot": {"x":0.5,"y":0.5}
},
"BluePlayerRun_11.png":
{
	"frame": {"x":750,"y":900,"w":150,"h":150},
	"rotated": false,
	"trimmed": false,
	"spriteSourceSize": {"x":0,"y":0,"w":150,"h":150},
	"sourceSize": {"w":150,"h":150},
	"pivot": {"x":0.5,"y":0.5}
},
"BluePlayerRun_12.png":
{
	"frame": {"x":0,"y":1050,"w":150,"h":150},
	"rotated": false,
	"trimmed": false,
	"spriteSourceSize": {"x":0,"y":0,"w":150,"h":150},
	"sourceSize": {"w":150,"h":150},
	"pivot": {"x":0.5,"y":0.5}
},
"BluePlayerRun_13.png":
{
	"frame": {"x":150,"y":1050,"w":150,"h":150},
	"rotated": false,
	"trimmed": false,
	"spriteSourceSize": {"x":0,"y":0,"w":150,"h":150},
	"sourceSize": {"w":150,"h":150},
	"pivot": {"x":0.5,"y":0.5}
},
"BluePlayerRun_14.png":
{
	"frame": {"x":300,"y":1050,"w":150,"h":150},
	"rotated": false,
	"trimmed": false,
	"spriteSourceSize": {"x":0,"y":0,"w":150,"h":150},
	"sourceSize": {"w":150,"h":150},
	"pivot": {"x":0.5,"y":0.5}
}},
"meta": {
	"app": "http://www.codeandweb.com/texturepacker",
	"version": "1.0",
	"image": "BluePlayerAll.png",
	"format": "RGBA8888",
	"size": {"w":900,"h":1200},
	"scale": "1",
	"smartupdate": "$TexturePacker:SmartUpdate:d1348de96fba0903ccda9dda992e1aa0:383f7ce230b41546934e72683ee7747a:e06250bc11327e4d4dd15335c9abefe0$"
}
}